%YAML 1.1
%TAG !u! tag:unity3d.com,2011:
--- !u!1045 &1
EditorBuildSettings:
  m_ObjectHideFlags: 0
  serializedVersion: 2
  m_Scenes:
  - enabled: 1
    path: Assets/Scenes/SampleScene.unity
    guid: 9fc0d4010bbf28b4594072e72b8655ab
  - enabled: 1
    path: Assets/Scenes/OutsideScene.unity
    guid: 325e52aef61075f40bab4b1caae2b6fe
  - enabled: 1
    path: Assets/Scenes/InsideScene.unity
    guid: ea1ec3fe1636e2c45bba06e4aeb5ca39
  m_configObjects: {}
